projects/rmii_rx/vivado/.Xil/Vivado-16248-LAPTOP-DJJCMLUK/hw_ila_data_1/zip_work/waveform.vcd
$date
        2023-May-21 17:39:15
$end
$version
        Vivado v2020.2 (64-bit)
$end
$timescale
        1ps
$end
$scope module dut $end
$var reg 1 " design_1_i/system_ila_0/inst/probe0_1 $end
$var reg 1 # design_1_i/system_ila_0/inst/probe1_1 $end
$var reg 8 $ design_1_i/system_ila_0/inst/probe2_1 [7:0] $end
$var reg 1 , design_1_i/system_ila_0/inst/probe3_1 $end
$var reg 4 - design_1_i/system_ila_0/inst/probe4_1 [3:0] $end
$var reg 1 1 design_1_i/system_ila_0/inst/probe5_1 $end
$var reg 1 2 design_1_i/system_ila_0/inst/probe6_1 $end
$var reg 11 3 design_1_i/system_ila_0/inst/probe7_1 [10:0] $end
$var reg 1 > design_1_i/system_ila_0/inst/probe8_1 $end
$var reg 1 ? _TRIGGER $end
$var reg 1 @ _WINDOW $end
$var reg 1 A _GAP $end
$upscope $end
$enddefinitions $end
#0
$dumpvars
1"
0#
b0 $
0,
b100 -
01
02
b101101 3
0>
0?
1@
0A
$end
#2
0"
1,
#4
1"
0,
#6
0"
1,
#8
1"
0,
#10
0"
1,
#12
1"
0,
#14
0"
1,
#16
1"
0,
#18
0"
1,
#20
1"
0,
#22
0"
1,
#24
1"
0,
#26
0"
1,
#28
1"
0,
#30
0"
1,
#32
1"
0,
#34
0"
1,
#36
1"
0,
#38
0"
1,
#40
1"
0,
#42
0"
1,
#44
1"
0,
#46
0"
1,
#48
1"
0,
#50
0"
1,
#52
1"
0,
#54
0"
1,
#56
1"
0,
#58
0"
1,
#60
1"
0,
#62
0"
1,
#64
1"
0,
#66
0"
1,
#68
1"
0,
#70
0"
1,
#72
1"
0,
#74
0"
1,
#76
1"
0,
#78
0"
1,
#80
1"
0,
#82
0"
1,
#84
1"
0,
#86
0"
1,
#88
1"
0,
#90
0"
1,
#92
1"
0,
#94
0"
1,
#96
1"
0,
#98
0"
1,
#100
1"
0,
#102
0"
1,
#104
1"
0,
#106
0"
1,
#108
1"
0,
#110
0"
1,
#112
1"
0,
#114
0"
1,
#116
1"
0,
#118
0"
1,
#120
1"
0,
#122
0"
1,
#124
1"
0,
#126
0"
1,
#128
1"
0,
#130
0"
1,
#132
1"
0,
#134
0"
1,
#136
1"
0,
#138
0"
1,
#140
1"
0,
#142
0"
1,
#144
1"
0,
#146
0"
1,
#148
1"
0,
#150
0"
1,
#152
1"
0,
#154
0"
1,
#156
1"
0,
#158
0"
1,
#160
1"
0,
#162
0"
1,
#164
1"
0,
#166
0"
1,
#168
1"
0,
#170
0"
1,
#172
1"
0,
#174
0"
1,
#176
1"
0,
#178
0"
1,
#180
1"
0,
#182
0"
1,
#184
1"
0,
#186
0"
1,
#188
1"
0,
#190
0"
1,
#192
1"
0,
#194
0"
1,
#196
1"
0,
#198
0"
1,
#200
1"
0,
#202
0"
1,
#204
1"
0,
#206
0"
1,
#208
1"
0,
#210
0"
1,
#212
1"
0,
#214
0"
1,
#216
1"
0,
#218
0"
1,
#220
1"
0,
#221
0"
#222
1,
#224
1"
0,
#226
0"
1,
#228
1"
0,
#229
0"
#230
1,
#232
1"
0,
#234
0"
1,
#236
1"
0,
#238
0"
1,
#240
1"
0,
#242
0"
1,
#244
1"
0,
#246
0"
1,
#248
1"
0,
#250
0"
1,
#252
1"
0,
#253
0"
#254
1,
#256
1"
0,
#258
0"
1,
#260
1"
0,
#262
0"
1,
#264
1"
0,
#266
0"
1,
#268
1"
0,
#270
0"
1,
#272
1"
0,
#274
0"
1,
#276
1"
0,
#278
0"
1,
#280
1"
0,
#282
0"
1,
#284
1"
0,
#286
0"
1,
#288
1"
0,
#289
0"
#290
1,
#292
1"
0,
#294
0"
1,
#296
1"
0,
#297
0"
#298
1,
#300
1"
0,
#302
0"
1,
#304
1"
0,
#306
0"
1,
#308
1"
0,
#310
0"
1,
#312
1"
0,
#314
0"
1,
#316
1"
0,
#318
0"
1,
#320
1"
0,
#322
0"
1,
#324
1"
0,
#326
0"
1,
#328
1"
0,
#330
0"
1,
#332
1"
0,
#334
0"
1,
#336
1"
0,
#338
0"
1,
#340
1"
0,
#342
0"
1,
#344
1"
0,
#346
0"
1,
#348
1"
0,
#350
0"
1,
#352
1"
0,
#354
0"
1,
#356
1"
0,
#357
0"
#358
1,
#360
1"
0,
#362
0"
1,
#364
1"
0,
#366
0"
1,
#368
1"
0,
#370
0"
1,
#372
1"
0,
#374
0"
1,
#376
1"
0,
#378
0"
1,
#380
1"
0,
#382
0"
1,
#384
1"
0,
#386
0"
1,
#388
1"
0,
#390
0"
1,
#392
1"
0,
#394
0"
1,
#396
1"
0,
#398
0"
1,
#400
1"
0,
#402
0"
1,
#404
1"
0,
#406
0"
1,
#408
1"
0,
#410
0"
1,
#412
1"
0,
#414
0"
1,
#416
1"
0,
#417
0"
#418
1,
#420
1"
0,
#421
0"
#422
1,
#424
1"
0,
#426
0"
1,
#428
1"
0,
#430
0"
1,
#432
1"
0,
#434
0"
1,
#436
1"
0,
#438
0"
1,
#440
1"
0,
#442
0"
1,
#444
1"
0,
#446
0"
1,
#448
1"
0,
#450
0"
1,
#452
1"
0,
#454
0"
1,
#456
1"
0,
#458
0"
1,
#460
1"
0,
#462
0"
1,
#464
1"
0,
#466
0"
1,
#468
1"
0,
#470
0"
1,
#472
1"
0,
#474
0"
1,
#476
1"
0,
#478
0"
1,
#480
1"
0,
#482
0"
1,
#484
1"
0,
#486
0"
1,
#488
1"
0,
#490
0"
1,
#492
1"
0,
#494
0"
1,
#496
1"
0,
#498
0"
1,
#500
1"
0,
#502
0"
1,
#504
1"
0,
#506
0"
1,
#508
1"
0,
#510
0"
1,
#512
1"
0,
#514
0"
1,
#516
1"
0,
#518
0"
1,
#520
1"
0,
#522
0"
1,
#524
1"
0,
#526
0"
1,
#528
1"
0,
#530
0"
1,
#532
1"
0,
#534
0"
1,
#536
1"
0,
#537
0"
#538
1,
#540
1"
0,
#541
0"
#542
1,
#544
1"
0,
#545
0"
#546
1,
#548
1"
0,
#550
0"
1,
#552
1"
0,
#554
0"
1,
#556
1"
0,
#558
0"
1,
#560
1"
0,
#562
0"
1,
#564
1"
0,
#566
0"
1,
#568
1"
0,
#570
0"
1,
#572
1"
0,
#574
0"
1,
#576
1"
0,
#578
0"
1,
#580
1"
0,
#582
0"
1,
#584
1"
0,
#586
0"
1,
#588
1"
0,
#590
0"
1,
#592
1"
0,
#594
0"
1,
#596
1"
0,
#598
0"
1,
#600
1"
0,
#602
0"
1,
#604
1"
0,
#606
0"
1,
#608
1"
0,
#610
0"
1,
#612
1"
0,
#614
0"
1,
#616
1"
0,
#618
0"
1,
#620
1"
0,
#622
0"
1,
#624
1"
0,
#626
0"
1,
#628
1"
0,
#630
0"
1,
#632
1"
0,
#634
0"
1,
#636
1"
0,
#638
0"
1,
#640
1"
0,
#642
0"
1,
#644
1"
0,
#646
0"
1,
#648
1"
0,
#650
0"
1,
#652
1"
0,
#654
0"
1,
#656
1"
0,
#658
0"
1,
#660
1"
0,
#662
0"
1,
#664
1"
0,
#666
0"
1,
#668
1"
0,
#670
0"
1,
#672
1"
0,
#674
0"
1,
#676
1"
0,
#678
0"
1,
#680
1"
0,
#682
0"
1,
#684
1"
0,
#686
0"
1,
#688
1"
0,
#690
0"
1,
#692
1"
0,
#694
0"
1,
#696
1"
0,
#698
0"
1,
#700
1"
0,
#702
0"
1,
#704
1"
0,
#706
0"
1,
#708
1"
0,
#710
0"
1,
#712
1"
0,
#714
0"
1,
#716
1"
0,
#717
0"
#718
1,
#720
1"
0,
#722
0"
1,
#724
1"
0,
#725
0"
#726
1,
#728
1"
0,
#729
0"
#730
1,
#732
1"
0,
#734
0"
1,
#736
1"
0,
#738
0"
1,
#740
1"
0,
#742
0"
1,
#744
1"
0,
#746
0"
1,
#748
1"
0,
#750
0"
1,
#752
1"
0,
#754
0"
1,
#756
1"
0,
#758
0"
1,
#760
1"
0,
#762
0"
1,
#764
1"
0,
#766
0"
1,
#768
1"
0,
#770
0"
1,
#772
1"
0,
#774
0"
1,
#776
1"
0,
#778
0"
1,
#780
1"
0,
#782
0"
1,
#784
1"
0,
#786
0"
1,
#788
1"
0,
#790
0"
1,
#792
1"
0,
#794
0"
1,
#796
1"
0,
#798
0"
1,
#800
1"
0,
#802
0"
1,
#804
1"
0,
#805
0"
#806
1,
#808
1"
0,
#810
0"
1,
#812
1"
0,
#814
0"
1,
#816
1"
0,
#818
0"
1,
#820
1"
0,
#822
0"
1,
#824
1"
0,
#825
0"
#826
1,
#828
1"
0,
#830
0"
1,
#832
1"
0,
#834
0"
1,
#836
1"
0,
#838
0"
1,
#840
1"
0,
#842
0"
1,
#844
1"
0,
#846
0"
1,
#848
1"
0,
#850
0"
1,
#852
1"
0,
#854
0"
1,
#856
1"
0,
#858
0"
1,
#860
1"
0,
#862
0"
1,
#864
1"
0,
#866
0"
1,
#868
1"
0,
#870
0"
1,
#872
1"
0,
#874
0"
1,
#876
1"
0,
#878
0"
1,
#880
1"
0,
#882
0"
1,
#884
1"
0,
#885
0"
#886
1,
#888
1"
0,
#890
0"
1,
#892
1"
0,
#894
0"
1,
#896
1"
0,
#898
0"
1,
#900
1"
0,
#902
0"
1,
#904
1"
0,
#906
0"
1,
#908
1"
0,
#910
0"
1,
#912
1"
0,
#914
0"
1,
#916
1"
0,
#918
0"
1,
#920
1"
0,
#922
0"
1,
#924
1"
0,
#926
0"
1,
#928
1"
0,
#930
0"
1,
#932
1"
0,
#934
0"
1,
#936
1"
0,
#938
0"
1,
#940
1"
0,
#942
0"
1,
#944
1"
0,
#946
0"
1,
#948
1"
0,
#950
0"
1,
#952
1"
0,
#954
0"
1,
#956
1"
0,
#958
0"
1,
#960
1"
0,
#962
0"
1,
#964
1"
0,
#966
0"
1,
#968
1"
0,
#970
0"
1,
#972
1"
0,
#974
0"
1,
#976
1"
0,
#977
0"
#978
1,
#980
1"
0,
#982
0"
1,
#984
1"
0,
#986
0"
1,
#988
1"
0,
#990
0"
1,
#992
1"
0,
#994
0"
1,
#996
1"
0,
#998
0"
1,
#1000
1"
0,
#1002
0"
1,
#1004
1"
0,
#1006
0"
1,
#1008
1"
0,
#1010
0"
1,
#1012
1"
0,
#1014
0"
1,
#1016
1"
0,
#1018
0"
1,
#1020
1"
0,
#1022
0"
1,
#1024
1"
0,
b101 -
11
1?
#1026
0"
1,
#1028
1"
0,
#1030
0"
1,
#1032
1"
0,
#1034
0"
1,
#1036
1"
0,
#1038
0"
1,
#1040
1"
0,
#1041
0"
#1042
1,
#1044
1"
0,
#1046
0"
1,
#1048
1"
0,
#1050
0"
1,
#1052
1"
0,
#1053
0"
#1054
1,
#1056
1"
0,
#1058
0"
1,
#1060
1"
0,
#1062
0"
1,
#1064
1"
0,
#1065
0"
#1066
1,
#1068
1"
0,
#1070
0"
1,
#1072
1"
0,
#1074
0"
1,
#1076
1"
0,
#1078
0"
1,
#1080
1"
0,
#1082
0"
1,
#1084
1"
0,
b1101 -
#1086
0"
1,
#1088
1"
0,
b1 -
#1090
0"
1,
#1092
1"
0,
b0 -
#1094
0"
1,
#1096
1"
0,
#1098
0"
1,
#1100
1"
0,
#1102
0"
1,
#1104
1"
0,
b1110 -
#1106
0"
1,
#1108
1"
0,
b101 -
#1110
0"
1,
#1112
1"
0,
b0 -
#1114
0"
1,
#1116
1"
0,
#1118
0"
1,
#1120
1"
0,
#1122
0"
1,
#1124
1"
0,
#1126
0"
1,
#1128
1"
0,
b1011 -
#1130
0"
1,
#1132
1"
0,
b1111 -
#1134
0"
1,
#1136
1"
0,
b0 -
#1138
0"
1,
#1140
1"
0,
b1011 -
#1142
0"
1,
#1144
1"
0,
b1111 -
#1146
0"
1,
#1148
1"
0,
b100 -
#1150
0"
1,
#1152
1"
0,
b11 -
#1154
0"
1,
#1156
1"
0,
b1 -
#1158
0"
1,
#1160
1"
0,
b100 -
#1162
0"
1,
#1164
1"
0,
b0 -
#1166
0"
1,
#1168
1"
0,
b101 -
#1170
0"
1,
#1172
1"
0,
b1010 -
#1173
0"
#1174
1,
#1176
1"
0,
b1110 -
#1177
0"
#1178
1,
#1180
1"
0,
b10 -
#1182
0"
1,
#1184
1"
0,
b1000 -
#1186
0"
1,
#1188
1"
0,
b0 -
#1190
0"
1,
#1192
1"
0,
#1194
0"
1,
#1196
1"
0,
#1197
0"
#1198
1,
#1200
1"
0,
b101 -
#1202
0"
1,
#1204
1"
0,
b100 -
#1206
0"
1,
#1208
1"
0,
b0 -
#1210
0"
1,
#1212
1"
0,
#1214
0"
1,
#1216
1"
0,
#1218
0"
1,
#1220
1"
0,
#1222
0"
1,
#1224
1"
0,
b1 -
#1226
0"
1,
#1228
1"
0,
b100 -
#1230
0"
1,
#1232
1"
0,
b1 -
#1234
0"
1,
#1236
1"
0,
b1101 -
#1238
0"
1,
#1240
1"
0,
b0 -
#1242
0"
1,
#1244
1"
0,
b1100 -
#1246
0"
1,
#1248
1"
0,
b0 -
#1250
0"
1,
#1252
1"
0,
#1254
0"
1,
#1256
1"
0,
#1258
0"
1,
#1260
1"
0,
#1262
0"
1,
#1264
1"
0,
b1111 -
#1266
0"
1,
#1268
1"
0,
#1270
0"
1,
#1272
1"
0,
b1 -
#1274
0"
1,
#1276
1"
0,
#1278
0"
1,
#1280
1"
0,
b11 -
#1282
0"
1,
#1284
1"
0,
b1110 -
#1286
0"
1,
#1288
1"
0,
b1011 -
#1290
0"
1,
#1292
1"
0,
b111 -
#1294
0"
1,
#1296
1"
0,
b10 -
#1298
0"
1,
#1300
1"
0,
b1000 -
#1302
0"
1,
#1304
1"
0,
b1111 -
#1306
0"
1,
#1308
1"
0,
b1011 -
#1309
0"
#1310
1,
#1312
1"
0,
b10 -
#1314
0"
1,
#1316
1"
0,
b1010 -
#1317
0"
#1318
1,
#1320
1"
0,
b100 -
#1321
0"
#1322
1,
#1324
1"
0,
b1011 -
#1326
0"
1,
#1328
1"
0,
b0 -
#1330
0"
1,
#1332
1"
0,
b1110 -
#1334
0"
1,
#1336
1"
0,
b0 -
#1338
0"
1,
#1340
1"
0,
#1342
0"
1,
#1344
1"
0,
#1346
0"
1,
#1348
1"
0,
#1350
0"
1,
#1352
1"
0,
b1011 -
#1353
0"
#1354
1,
#1356
1"
0,
b1111 -
#1358
0"
1,
#1360
1"
0,
b100 -
#1362
0"
1,
#1364
1"
0,
b1 -
#1366
0"
1,
#1368
1"
0,
b1001 -
#1370
0"
1,
#1372
1"
0,
b1110 -
#1374
0"
1,
#1376
1"
0,
b100 -
#1378
0"
1,
#1380
1"
0,
b1 -
#1382
0"
1,
#1384
1"
0,
b1001 -
#1386
0"
1,
#1388
1"
0,
b1110 -
#1390
0"
1,
#1392
1"
0,
b0 -
#1394
0"
1,
#1396
1"
0,
#1398
0"
1,
#1400
1"
0,
b1101 -
#1402
0"
1,
#1404
1"
0,
b10 -
#1406
0"
1,
#1408
1"
0,
b101 -
#1410
0"
1,
#1412
1"
0,
b1011 -
#1414
0"
1,
#1416
1"
0,
b1101 -
#1418
0"
1,
#1420
1"
0,
b111 -
#1422
0"
1,
#1424
1"
0,
b0 -
#1425
0"
#1426
1,
#1428
1"
0,
#1430
0"
1,
#1432
1"
0,
#1434
0"
1,
#1436
1"
0,
#1437
0"
#1438
1,
#1440
1"
0,
#1442
0"
1,
#1444
1"
0,
#1446
0"
1,
#1448
1"
0,
#1450
0"
1,
#1452
1"
0,
#1454
0"
1,
#1456
1"
0,
#1458
0"
1,
#1460
1"
0,
#1462
0"
1,
#1464
1"
0,
b1 -
#1466
0"
1,
#1468
1"
0,
b0 -
#1470
0"
1,
#1472
1"
0,
#1474
0"
1,
#1476
1"
0,
#1478
0"
1,
#1480
1"
0,
#1482
0"
1,
#1484
1"
0,
#1486
0"
1,
#1488
1"
0,
#1490
0"
1,
#1492
1"
0,
#1494
0"
1,
#1496
1"
0,
#1498
0"
1,
#1500
1"
0,
#1502
0"
1,
#1504
1"
0,
#1506
0"
1,
#1508
1"
0,
#1510
0"
1,
#1512
1"
0,
#1514
0"
1,
#1516
1"
0,
#1518
0"
1,
#1520
1"
0,
b1000 -
#1522
0"
1,
#1524
1"
0,
b0 -
#1526
0"
1,
#1528
1"
0,
b1111 -
#1530
0"
1,
#1532
1"
0,
b101 -
#1534
0"
1,
#1536
1"
0,
b1110 -
#1538
0"
1,
#1540
1"
0,
b110 -
#1542
0"
1,
#1544
1"
0,
b1001 -
#1546
0"
1,
#1548
1"
0,
b110 -
#1550
0"
1,
#1552
1"
0,
b1101 -
#1553
0"
#1554
1,
#1556
1"
0,
b10 -
#1558
0"
1,
#1560
1"
0,
b11 -
#1562
0"
1,
#1564
1"
0,
b111 -
#1566
0"
1,
#1568
1"
0,
b1100 -
#1570
0"
1,
#1572
1"
0,
b110 -
#1574
0"
1,
#1576
1"
0,
b11 -
#1578
0"
1,
#1580
1"
0,
b111 -
#1581
0"
#1582
1,
#1584
1"
0,
b11 -
#1586
0"
1,
#1588
1"
0,
b110 -
#1589
0"
#1590
1,
#1592
1"
0,
b100 -
#1593
0"
#1594
1,
#1596
1"
0,
b0 -
#1598
0"
1,
#1600
1"
0,
b1111 -
#1601
0"
#1602
1,
#1604
1"
0,
b101 -
#1606
0"
1,
#1608
1"
0,
b100 -
#1610
0"
1,
#1612
1"
0,
b111 -
#1614
0"
1,
#1616
1"
0,
b11 -
#1618
0"
1,
#1620
1"
0,
b110 -
#1621
0"
#1622
1,
#1624
1"
0,
b0 -
#1626
0"
1,
#1628
1"
0,
b111 -
#1630
0"
1,
#1632
1"
0,
b101 -
#1634
0"
1,
#1636
1"
0,
b0 -
#1638
0"
1,
#1640
1"
0,
b1100 -
#1642
0"
1,
#1644
1"
0,
b110 -
#1645
0"
#1646
1,
#1648
1"
0,
b1111 -
#1649
0"
#1650
1,
#1652
1"
0,
b110 -
#1654
0"
1,
#1656
1"
0,
b11 -
#1658
0"
1,
#1660
1"
0,
b110 -
#1662
0"
1,
#1664
1"
0,
b1 -
#1666
0"
1,
#1668
1"
0,
b110 -
#1670
0"
1,
#1672
1"
0,
b1100 -
#1674
0"
1,
#1676
1"
0,
b110 -
#1678
0"
1,
#1680
1"
0,
b0 -
#1682
0"
1,
#1684
1"
0,
#1686
0"
1,
#1688
1"
0,
#1690
0"
1,
#1692
1"
0,
#1694
0"
1,
#1696
1"
0,
b1100 -
#1698
0"
1,
#1700
1"
0,
b0 -
#1702
0"
1,
#1704
1"
0,
#1706
0"
1,
#1708
1"
0,
#1710
0"
1,
#1712
1"
0,
b1 -
#1714
0"
1,
#1716
1"
0,
b0 -
#1718
0"
1,
#1720
1"
0,
b10 -
#1722
0"
1,
#1724
1"
0,
b1011 -
#1726
0"
1,
#1728
1"
0,
#1730
0"
1,
#1732
1"
0,
b1111 -
#1734
0"
1,
#1736
1"
0,
b1011 -
#1738
0"
1,
#1740
1"
0,
b11 -
#1742
0"
1,
#1744
1"
0,
b1000 -
#1746
0"
1,
#1748
1"
0,
b1 -
#1750
0"
1,
#1752
1"
0,
01
#1754
0"
1,
#1756
1"
0,
#1758
0"
1,
#1760
1"
0,
1>
#1762
0"
1,
#1764
1"
0,
0>
#1765
0"
#1766
1,
#1768
1"
0,
b1000000 3
#1770
0"
1,
#1772
1"
0,
b0 3
#1774
0"
1,
#1776
1"
0,
#1778
0"
1,
#1780
1"
0,
#1781
0"
#1782
1,
#1784
1"
0,
#1786
0"
1,
#1788
1"
0,
#1790
0"
1,
#1792
1"
0,
#1794
0"
1,
#1796
1"
0,
#1797
0"
#1798
1,
#1800
1"
0,
#1802
0"
1,
#1804
1"
0,
#1806
0"
1,
#1808
1"
0,
#1810
0"
1,
#1812
1"
0,
#1814
0"
1,
#1816
1"
0,
#1818
0"
1,
#1820
1"
0,
#1822
0"
1,
#1824
1"
0,
#1826
0"
1,
#1828
1"
0,
#1830
0"
1,
#1832
1"
0,
#1834
0"
1,
#1836
1"
0,
#1838
0"
1,
#1840
1"
0,
#1842
0"
1,
#1844
1"
0,
#1846
0"
1,
#1848
1"
0,
#1849
0"
#1850
1,
#1852
1"
0,
#1854
0"
1,
#1856
1"
0,
#1858
0"
1,
#1860
1"
0,
#1862
0"
1,
#1864
1"
0,
#1866
0"
1,
#1868
1"
0,
#1870
0"
1,
#1872
1"
0,
#1874
0"
1,
#1876
1"
0,
#1878
0"
1,
#1880
1"
0,
#1882
0"
1,
#1884
1"
0,
#1886
0"
1,
#1888
1"
0,
#1890
0"
1,
#1892
1"
0,
#1894
0"
1,
#1896
1"
0,
#1898
0"
1,
#1900
1"
0,
#1902
0"
1,
#1904
1"
0,
#1906
0"
1,
#1908
1"
0,
#1910
0"
1,
#1912
1"
0,
#1914
0"
1,
#1916
1"
0,
#1918
0"
1,
#1920
1"
0,
#1922
0"
1,
#1924
1"
0,
#1926
0"
1,
#1928
1"
0,
#1930
0"
1,
#1932
1"
0,
#1934
0"
1,
#1936
1"
0,
#1938
0"
1,
#1940
1"
0,
#1942
0"
1,
#1944
1"
0,
#1946
0"
1,
#1948
1"
0,
#1950
0"
1,
#1952
1"
0,
#1954
0"
1,
#1956
1"
0,
#1958
0"
1,
#1960
1"
0,
#1962
0"
1,
#1964
1"
0,
#1966
0"
1,
#1968
1"
0,
#1970
0"
1,
#1972
1"
0,
#1974
0"
1,
#1976
1"
0,
#1978
0"
1,
#1980
1"
0,
#1982
0"
1,
#1984
1"
0,
#1986
0"
1,
#1988
1"
0,
#1990
0"
1,
#1992
1"
0,
#1994
0"
1,
#1996
1"
0,
#1998
0"
1,
#2000
1"
0,
#2002
0"
1,
#2004
1"
0,
#2006
0"
1,
#2008
1"
0,
#2010
0"
1,
#2012
1"
0,
#2014
0"
1,
#2016
1"
0,
#2018
0"
1,
#2020
1"
0,
#2022
0"
1,
#2024
1"
0,
#2025
0"
#2026
1,
#2028
1"
0,
#2030
0"
1,
#2032
1"
0,
b11001010 3
#2034
0"
1,
#2036
1"
0,
#2038
0"
1,
#2040
1"
0,
#2042
0"
1,
#2044
1"
0,
#2046
0"
1,
